{
	"https://vcfs02.meditech.com/svn/M-AT/2.0.1/Dev": {
		"Universe": "MTUNV201",
		"Ring": "D2.01F",
		"HCIS": "D2.01F"
	},
	"https://vcfs02.meditech.com/svn/M-AT/2.0.1/Test": {
		"Universe": "MTUNV201",
		"Ring": "T2.0.1F",
		"HCIS": "T2.0.1F"
	},
	"https://vcfs02.meditech.com/svn/M-AT/2.0.1/Complete": {
		"Universe": "MTUNV201",
		"Ring": "C2.0.1F",
		"HCIS": "C2.0.1F"
	},
	"https://vcfs02.meditech.com/svn/M-AT/6.0.7/Dev": {
		"Universe": "MTUNV2",
		"Ring": "D6.07F",
		"HCIS": "S6.0.7F"
	},
	"https://vcfs02.meditech.com/svn/M-AT/6.0.7/Test": {
		"Universe": "MTUNV2",
		"Ring": "T6.0.7F",
		"HCIS": "T6.0.7F"
	},
	"https://vcfs02.meditech.com/svn/M-AT/6.0.7/Complete": {
		"Universe": "MTUNV2",
		"Ring": "C6.0.7F",
		"HCIS": "C6.0.7F"
	},

	"https://vcfs02.meditech.com/svn/M-AT/6.0.8/Dev": {
		"Universe": "MTUNV608",
		"Ring": "D6.08F",
		"HCIS": "S6.0.8F"
	},
	"https://vcfs02.meditech.com/svn/M-AT/6.0.8/Test": {
		"Universe": "MTUNV608",
		"Ring": "T6.0.8F",
		"HCIS": "T6.1.4F"
	},
	"https://vcfs02.meditech.com/svn/M-AT/6.0.8/Complete": {
		"Universe": "MTUNV608",
		"Ring": "C6.0.8F",
		"HCIS": "C6.0.8F"
	},
	"https://vcfs02.meditech.com/svn/M-AT/6.1.4/Dev": {
		"Universe": "MTUNV614",
		"Ring": "D6.14F",
		"HCIS": "S6.1.4F"
	},
	"https://vcfs02.meditech.com/svn/M-AT/6.1.4/Test": {
		"Universe": "MTUNV614",
		"Ring": "T6.1.4F",
		"HCIS": "T6.1.4F"
	},
	"https://vcfs02.meditech.com/svn/M-AT/6.1.4/Complete": {
		"Universe": "MTUNV614",
		"Ring": "C6.1.4F",
		"HCIS": "C6.1.4F"
	},
	"https://vcfs02.meditech.com/svn/M-AT/6.1.5/Dev": {
		"Universe": "MTUNV615",
		"Ring": "D6.15F",
		"HCIS": "S6.1.5F"
	},
	"https://vcfs02.meditech.com/svn/M-AT/6.1.5/Test": {
		"Universe": "MTUNV615",
		"Ring": "T6.1.5F",
		"HCIS": "T6.1.5F"
	},
	"https://vcfs02.meditech.com/svn/M-AT/6.1.5/Complete": {
		"Universe": "MTUNV615",
		"Ring": "C6.1.5F",
		"HCIS": "C6.1.5F"
	},
	"https://vcfs02.meditech.com/svn/M-AT/6.1.6/Dev": {
		"Universe": "MTUNV616",
		"Ring": "D6.16F",
		"HCIS": "D.16F"
	},
	"https://vcfs02.meditech.com/svn/M-AT/6.1.6/Test": {
		"Universe": "MTUNV616",
		"Ring": "T6.1.6F",
		"HCIS": "T6.1.6F"
	},
	"http://focdev26.meditech.com/svn/ADE_CSNPR/6.0/Source": {
		"Universe": "MTUNV",
		"Ring": "PLRS6.0N",
		"HCIS": "PLRS6.0N"
	},
	"http://focdev26.meditech.com/svn/ADE_CSNPR/6.0/Dev": {
		"Universe": "MTUNV",
		"Ring": "PLRD6.0N",
		"HCIS": "PLRD6.0N"
	},
	"https://vcfs01.meditech.com/svn/CS-NPR-NEW/MTCM/Source": {
		"Universe": "MTCM",
		"Ring": "MTCM.QCN",
		"HCIS": "MTCM.QCN"
	},
	"http://focdev26.meditech.com/svn/ADE_MAT/6.0/Source": {
		"Universe": "MTUNV",
		"Ring": "PLRS6.0F",
		"HCIS": "PLRS6.0F"
	},
	"http://focdev26.meditech.com/svn/ADE_MAT/6.0/Dev": {
		"Universe": "MTUNV",
		"Ring": "PLRD6.0F",
		"HCIS": "PLRD6.0F"
	},
	"http://focdev26.meditech.com/svn/ADE_MAT/6.0/Test": {
		"Universe": "MTUNV",
		"Ring": "PLRT6.0F",
		"HCIS": "PLRT6.0F"
	},
	"http://focdev26.meditech.com/svn/ADE_MAT/6.0.7/Source": {
		"Universe": "MTUNV2",
		"Ring": "PLRS6.0.7F",
		"HCIS": "PLRS6.0.7F"
	},
	"http://focdev26.meditech.com/svn/ADE_MAT/6.0.7/Dev": {
		"Universe": "MTUNV2",
		"Ring": "PLRD6.0.7F",
		"HCIS": "PLRD6.0.7F"
	},
	"http://focdev26.meditech.com/svn/ADE_MAT/6.0.7/Test": {
		"Universe": "MTUNV2",
		"Ring": "PLRT6.0.7F",
		"HCIS": "PLRT6.0.7F"
	},
	"http://focdev26.meditech.com/svn/ADE_MAT/6.0.8/Source": {
		"Universe": "MTUNV",
		"Ring": "PLRS6.0.8F",
		"HCIS": "PLRS6.0.8F"
	},
	"http://focdev26.meditech.com/svn/ADE_MAT/6.0.8/Dev": {
		"Universe": "MTUNV",
		"Ring": "PLRD6.0.8F",
		"HCIS": "PLRD6.0.8F"
	},
	"http://focdev26.meditech.com/svn/ADE_MAT/6.0.8/Test": {
		"Universe": "MTUNV",
		"Ring": "PLRT6.0.8F",
		"HCIS": "PLRT6.0.8F"
	},
	"http://focdev26.meditech.com/svn/ADE_MAT/2.0.1/Dev": {
		"Universe": "MTUNV201",
		"Ring": "PLRD2.0.1F",
		"HCIS": "PLRD2.0.1F"
	},
	"http://focdev26.meditech.com/svn/ADE_MAT/MTCM.DEVF/Source": {
		"Universe": "MTCM",
		"Ring": "MTCM.DEVF",
		"HCIS": "MTCM.DEVF"

	}
}
